{
    "project": {
        "name": "darsy",
        "description": "angularjs dependency loader",
        "version": "0.0.1",
        "url": ""
    },
    "files": {
        "app\\main.ts": {
            "name": "app\\main.ts",
            "modules": {},
            "classes": {
                "DisplayObject": 1
            },
            "fors": {},
            "namespaces": {}
        }
    },
    "modules": {},
    "classes": {
        "DisplayObject": {
            "name": "DisplayObject",
            "shortname": "DisplayObject",
            "classitems": [],
            "plugins": [],
            "extensions": [],
            "plugin_for": [],
            "extension_for": [],
            "file": "app\\main.ts",
            "line": 3,
            "description": "The {{#crossLink \"DisplayObject\"}}{{/crossLink}} class is the base class for all objects that can be placed on the display list.",
            "extends": "EventDispatcher",
            "is_constructor": 1
        }
    },
    "elements": {},
    "classitems": [
        {
            "file": "app\\main.ts",
            "line": 25,
            "description": "The isEnabled property is used to keep track of the enabled start of the DisplayObject.",
            "itemtype": "property",
            "name": "isEnabled",
            "type": "{boolean}",
            "default": "false",
            "access": "protected",
            "tagname": "",
            "class": "DisplayObject"
        }
    ],
    "warnings": []
}